^T:\SPACEINVADERS\PROJ\VS2015\OBJ\ALIEN.OBJ|T:\SPACEINVADERS\PROJ\VS2015\OBJ\BULLET.OBJ|T:\SPACEINVADERS\PROJ\VS2015\OBJ\MAIN.OBJ|T:\SPACEINVADERS\PROJ\VS2015\OBJ\MOTHERSHIP.OBJ|T:\SPACEINVADERS\PROJ\VS2015\OBJ\PLAYER.OBJ|T:\SPACEINVADERS\PROJ\VS2015\OBJ\SCORES.OBJ|T:\SPACEINVADERS\PROJ\VS2015\OBJ\SHIELD.OBJ|T:\SPACEINVADERS\PROJ\VS2015\OBJ\SPACEINVADERS.OBJ|T:\SPACEINVADERS\PROJ\VS2015\OBJ\STARFIELD.OBJ|T:\SPACEINVADERS\PROJ\VS2015\OBJ\TIMER.OBJ|T:\SPACEINVADERS\PROJ\VS2015\OBJ\TITLETEXT.OBJ|T:\SPACEINVADERS\PROJ\VS2015\OBJ\VECTOR2.OBJ
/OUT:"..\..\BIN\X64\DEBUG\SPACE_INVADERS.EXE" /INCREMENTAL /NOLOGO /LIBPATH:T:\SPACEINVADERS\PROJ\VS2015\../../LIB\VS2015\X64\DEBUG /LIBPATH:T:\SPACEINVADERS\PROJ\VS2015\../../DEPS/UOG/LIB/VS2015/X64/DEBUG "UG BASIC FRAMEWORK.LIB" KERNEL32.LIB USER32.LIB GDI32.LIB WINSPOOL.LIB COMDLG32.LIB ADVAPI32.LIB SHELL32.LIB OLE32.LIB OLEAUT32.LIB UUID.LIB ODBC32.LIB ODBCCP32.LIB KERNEL32.LIB USER32.LIB GDI32.LIB WINSPOOL.LIB COMDLG32.LIB ADVAPI32.LIB SHELL32.LIB OLE32.LIB OLEAUT32.LIB UUID.LIB ODBC32.LIB ODBCCP32.LIB /MANIFEST /MANIFESTUAC:"level='asInvoker' uiAccess='false'" /manifest:embed /Debug /PDB:"..\..\BIN\X64\DEBUG\SPACE_INVADERS.PDB" /TLBID:1 /DYNAMICBASE /NXCOMPAT /IMPLIB:"..\..\BIN\X64\DEBUG\SPACE_INVADERS.LIB" /MACHINE:X64 ./OBJ\ALIEN.OBJ./OBJ\BULLET.OBJ./OBJ\MAIN.OBJ./OBJ\MOTHERSHIP.OBJ./OBJ\PLAYER.OBJ./OBJ\SCORES.OBJ./OBJ\SHIELD.OBJ./OBJ\SPACEINVADERS.OBJ./OBJ\STARFIELD.OBJ./OBJ\TIMER.OBJ./OBJ\TITLETEXT.OBJ./OBJ\VECTOR2.OBJ
^T:\SPACEINVADERS - COPY\PROJ\VS2015\OBJ\ALIEN.OBJ|T:\SPACEINVADERS - COPY\PROJ\VS2015\OBJ\BULLET.OBJ|T:\SPACEINVADERS - COPY\PROJ\VS2015\OBJ\MAIN.OBJ|T:\SPACEINVADERS - COPY\PROJ\VS2015\OBJ\MOTHERSHIP.OBJ|T:\SPACEINVADERS - COPY\PROJ\VS2015\OBJ\PLAYER.OBJ|T:\SPACEINVADERS - COPY\PROJ\VS2015\OBJ\SCORES.OBJ|T:\SPACEINVADERS - COPY\PROJ\VS2015\OBJ\SHIELD.OBJ|T:\SPACEINVADERS - COPY\PROJ\VS2015\OBJ\SPACEINVADERS.OBJ|T:\SPACEINVADERS - COPY\PROJ\VS2015\OBJ\STARFIELD.OBJ|T:\SPACEINVADERS - COPY\PROJ\VS2015\OBJ\TIMER.OBJ|T:\SPACEINVADERS - COPY\PROJ\VS2015\OBJ\TITLETEXT.OBJ|T:\SPACEINVADERS - COPY\PROJ\VS2015\OBJ\VECTOR2.OBJ
/OUT:"..\..\BIN\X64\DEBUG\SPACE_INVADERS.EXE" /INCREMENTAL /NOLOGO /LIBPATH:"T:\SPACEINVADERS - COPY\PROJ\VS2015\../../LIB\VS2015\X64\DEBUG" /LIBPATH:"T:\SPACEINVADERS - COPY\PROJ\VS2015\../../DEPS/UOG/LIB/VS2015/X64/DEBUG" "UG BASIC FRAMEWORK.LIB" KERNEL32.LIB USER32.LIB GDI32.LIB WINSPOOL.LIB COMDLG32.LIB ADVAPI32.LIB SHELL32.LIB OLE32.LIB OLEAUT32.LIB UUID.LIB ODBC32.LIB ODBCCP32.LIB KERNEL32.LIB USER32.LIB GDI32.LIB WINSPOOL.LIB COMDLG32.LIB ADVAPI32.LIB SHELL32.LIB OLE32.LIB OLEAUT32.LIB UUID.LIB ODBC32.LIB ODBCCP32.LIB /MANIFEST /MANIFESTUAC:"level='asInvoker' uiAccess='false'" /manifest:embed /Debug /PDB:"..\..\BIN\X64\DEBUG\SPACE_INVADERS.PDB" /TLBID:1 /DYNAMICBASE /NXCOMPAT /IMPLIB:"..\..\BIN\X64\DEBUG\SPACE_INVADERS.LIB" /MACHINE:X64 ./OBJ\ALIEN.OBJ./OBJ\BULLET.OBJ./OBJ\MAIN.OBJ./OBJ\MOTHERSHIP.OBJ./OBJ\PLAYER.OBJ./OBJ\SCORES.OBJ./OBJ\SHIELD.OBJ./OBJ\SPACEINVADERS.OBJ./OBJ\STARFIELD.OBJ./OBJ\TIMER.OBJ./OBJ\TITLETEXT.OBJ./OBJ\VECTOR2.OBJ
^T:\ML\SPACEINVADERS\PROJ\VS2015\OBJ\ALIEN.OBJ|T:\ML\SPACEINVADERS\PROJ\VS2015\OBJ\BULLET.OBJ|T:\ML\SPACEINVADERS\PROJ\VS2015\OBJ\MAIN.OBJ|T:\ML\SPACEINVADERS\PROJ\VS2015\OBJ\MOTHERSHIP.OBJ|T:\ML\SPACEINVADERS\PROJ\VS2015\OBJ\PLAYER.OBJ|T:\ML\SPACEINVADERS\PROJ\VS2015\OBJ\SCORES.OBJ|T:\ML\SPACEINVADERS\PROJ\VS2015\OBJ\SHIELD.OBJ|T:\ML\SPACEINVADERS\PROJ\VS2015\OBJ\SPACEINVADERS.OBJ|T:\ML\SPACEINVADERS\PROJ\VS2015\OBJ\STARFIELD.OBJ|T:\ML\SPACEINVADERS\PROJ\VS2015\OBJ\TIMER.OBJ|T:\ML\SPACEINVADERS\PROJ\VS2015\OBJ\TITLETEXT.OBJ|T:\ML\SPACEINVADERS\PROJ\VS2015\OBJ\VECTOR2.OBJ
/OUT:"..\..\BIN\X64\DEBUG\SPACE_INVADERS.EXE" /INCREMENTAL /NOLOGO /LIBPATH:T:\ML\SPACEINVADERS\PROJ\VS2015\../../LIB\VS2015\X64\DEBUG /LIBPATH:T:\ML\SPACEINVADERS\PROJ\VS2015\../../DEPS/UOG/LIB/VS2015/X64/DEBUG "UG BASIC FRAMEWORK.LIB" KERNEL32.LIB USER32.LIB GDI32.LIB WINSPOOL.LIB COMDLG32.LIB ADVAPI32.LIB SHELL32.LIB OLE32.LIB OLEAUT32.LIB UUID.LIB ODBC32.LIB ODBCCP32.LIB KERNEL32.LIB USER32.LIB GDI32.LIB WINSPOOL.LIB COMDLG32.LIB ADVAPI32.LIB SHELL32.LIB OLE32.LIB OLEAUT32.LIB UUID.LIB ODBC32.LIB ODBCCP32.LIB /MANIFEST /MANIFESTUAC:"level='asInvoker' uiAccess='false'" /manifest:embed /DEBUG /PDB:"..\..\BIN\X64\DEBUG\SPACE_INVADERS.PDB" /TLBID:1 /DYNAMICBASE /NXCOMPAT /IMPLIB:"..\..\BIN\X64\DEBUG\SPACE_INVADERS.LIB" /MACHINE:X64 ./OBJ\ALIEN.OBJ./OBJ\BULLET.OBJ./OBJ\MAIN.OBJ./OBJ\MOTHERSHIP.OBJ./OBJ\PLAYER.OBJ./OBJ\SCORES.OBJ./OBJ\SHIELD.OBJ./OBJ\SPACEINVADERS.OBJ./OBJ\STARFIELD.OBJ./OBJ\TIMER.OBJ./OBJ\TITLETEXT.OBJ./OBJ\VECTOR2.OBJ
^T:\SI\PROJ\VS2015\OBJ\ALIEN.OBJ|T:\SI\PROJ\VS2015\OBJ\BULLET.OBJ|T:\SI\PROJ\VS2015\OBJ\MAIN.OBJ|T:\SI\PROJ\VS2015\OBJ\MOTHERSHIP.OBJ|T:\SI\PROJ\VS2015\OBJ\PLAYER.OBJ|T:\SI\PROJ\VS2015\OBJ\SCORES.OBJ|T:\SI\PROJ\VS2015\OBJ\SHIELD.OBJ|T:\SI\PROJ\VS2015\OBJ\SPACEINVADERS.OBJ|T:\SI\PROJ\VS2015\OBJ\STARFIELD.OBJ|T:\SI\PROJ\VS2015\OBJ\TIMER.OBJ|T:\SI\PROJ\VS2015\OBJ\TITLETEXT.OBJ|T:\SI\PROJ\VS2015\OBJ\VECTOR2.OBJ
/OUT:"..\..\BIN\X64\DEBUG\SPACE_INVADERS.EXE" /INCREMENTAL /NOLOGO /LIBPATH:T:\SI\PROJ\VS2015\../../LIB\VS2015\X64\DEBUG /LIBPATH:T:\SI\PROJ\VS2015\../../DEPS/UOG/LIB/VS2015/X64/DEBUG "UG BASIC FRAMEWORK.LIB" KERNEL32.LIB USER32.LIB GDI32.LIB WINSPOOL.LIB COMDLG32.LIB ADVAPI32.LIB SHELL32.LIB OLE32.LIB OLEAUT32.LIB UUID.LIB ODBC32.LIB ODBCCP32.LIB KERNEL32.LIB USER32.LIB GDI32.LIB WINSPOOL.LIB COMDLG32.LIB ADVAPI32.LIB SHELL32.LIB OLE32.LIB OLEAUT32.LIB UUID.LIB ODBC32.LIB ODBCCP32.LIB /MANIFEST /MANIFESTUAC:"level='asInvoker' uiAccess='false'" /manifest:embed /DEBUG /PDB:"..\..\BIN\X64\DEBUG\SPACE_INVADERS.PDB" /TLBID:1 /DYNAMICBASE /NXCOMPAT /IMPLIB:"..\..\BIN\X64\DEBUG\SPACE_INVADERS.LIB" /MACHINE:X64 ./OBJ\ALIEN.OBJ./OBJ\BULLET.OBJ./OBJ\MAIN.OBJ./OBJ\MOTHERSHIP.OBJ./OBJ\PLAYER.OBJ./OBJ\SCORES.OBJ./OBJ\SHIELD.OBJ./OBJ\SPACEINVADERS.OBJ./OBJ\STARFIELD.OBJ./OBJ\TIMER.OBJ./OBJ\TITLETEXT.OBJ./OBJ\VECTOR2.OBJ
